…
| Transylvania County, North Carolina |           21627 |        20780 | 4.08%              |
| Tyrrell County, North Carolina      |            1741 |         1757 | 0.91%              |
| Union County, North Carolina        |          134750 |       139355 | 3.30%              |
| Vance County, North Carolina        |           22537 |        20092 | 12.17%             |
| Wake County, North Carolina         |          647679 |       653580 | 0.90%              |
| Warren County, North Carolina       |           11327 |        10013 | 13.12%             |
| Washington County, North Carolina   |            6234 |         5944 | 4.88%              |
| Watauga County, North Carolina      |           29884 |        33095 | 9.70%              |
| Wayne County, North Carolina        |           58100 |        54762 | 6.10%              |
| Wilkes County, North Carolina       |           36290 |        36320 | 0.08%              |
| Wilson County, North Carolina       |           41333 |        40045 | 3.22%              |
| Yadkin County, North Carolina       |           20656 |        20397 | 1.27%              |
| Yancey County, North Carolina       |           11187 |        11287 | 0.89%              |

    ## # A tibble: 100 × 4
    ##    LOCATION                      Predicted_Votes Actual_Votes Absolute_Error_Pct
    ##    <chr>                                   <int>        <dbl> <chr>             
    ##  1 Alamance County, North Carol…           91297        89831 1.63%             
    ##  2 Alexander County, North Caro…           21013        20677 1.62%             
    ##  3 Alleghany County, North Caro…            6786         6496 4.46%             
    ##  4 Anson County, North Carolina            11731        10875 7.87%             
    ##  5 Ashe County, North Carolina             16324        16253 0.44%             
    ##  6 Avery County, North Carolina             9388         9489 1.06%             
    ##  7 Beaufort County, North Carol…           26213        26572 1.35%             
    ##  8 Bertie County, North Carolina           10748         9186 17.00%            
    ##  9 Bladen County, North Carolina           17070        16764 1.83%             
    ## 10 Brunswick County, North Caro…           99952       108773 8.11%             
    ## # ℹ 90 more rows
…
